{
  "project_info": {
    "project_number": "697263212963",
    "firebase_url": "https://chat-bf385.firebaseio.com",
    "project_id": "chat-bf385",
    "storage_bucket": "chat-bf385.appspot.com"
  },
  "client": [
    {
      "client_info": {
        "mobilesdk_app_id": "1:697263212963:android:fc1e33768bd76296",
        "android_client_info": {
          "package_name": "com.chat"
        }
      },
      "oauth_client": [
        {
          "client_id": "697263212963-gpamn3ph6dpb904aulda1nugqe96rr1o.apps.googleusercontent.com",
          "client_type": 1,
          "android_info": {
            "package_name": "com.chat",
            "certificate_hash": "016abeeca932099ad515906bc65e90d49fe70408"
          }
        },
        {
          "client_id": "697263212963-di4s0rn6hal0o25doi7ju1hei28gli25.apps.googleusercontent.com",
          "client_type": 3
        }
      ],
      "api_key": [
        {
          "current_key": "AIzaSyBsU3pNm8EqDVaCR1UJgH8ppPq78f6FqI4"
        }
      ],
      "services": {
        "analytics_service": {
          "status": 1
        },
        "appinvite_service": {
          "status": 2,
          "other_platform_oauth_client": [
            {
              "client_id": "697263212963-di4s0rn6hal0o25doi7ju1hei28gli25.apps.googleusercontent.com",
              "client_type": 3
            }
          ]
        },
        "ads_service": {
          "status": 2
        }
      }
    }
  ],
  "configuration_version": "1"
}